"Id"	"Sujeto"	"Fecha_Medida"	"Codigo_Agr"	"Velocidad"	"Gender"	"Cadencia"	"Desfase"	"ControlPelvis"	"Gender.1"	"Aetiology"	"Age"	"Phase"	"BBS"	"BI"	"BipHS"	"CapHS"	"CNS_A"	"CNS_B"	"CNS_Total"	"EVA"	"FAC"	"FACHS"	"IMQ_Abilities"	"IMQ_Effort"	"IMQ_Interest"	"IMQ_Stress"	"IMQ_Total"	"Mas_Quadriceps"	"MAS_Psoas"	"MAS_Tibialis"	"MMT_Quadriceps"	"MMT_Psoas"	"MMT_Tibialis"	"SedHS"	"TCT"	"TUG"	"MMT"	"MAS"	"DiaAlta"	"DiaIctus"	"HipFE.Healthy"	"KneFE.Healthy"	"AnkleFE.Healthy"	"HipAbd.Healthy"	"HipFE.Pathological"	"KneFE.Pathological"	"AnkleFE.Pathological"	"HipAbd.Pathological"
"1"	"WP3HD08"	"2011-12-15"	"WP3HD08:182"	0.2583333	"Man"	45.6533652632	20.8797778421	10.3615993158	"Hombre"	"Isquémico"	78	"F8"	46	90	NA	NA	NA	NA	NA	0	4	3	24.5	19	25.5	6	75	0	0	0	5	4	4	NA	NA	31	4	0	182	176	27.6042856842	49.6017602105	84.6901126842	18.2736621053	19.414935	28.0342108947	35.7869861053	28.1968575789
"3"	"WP3HD15"	"2012-02-09"	"WP3HD15:156"	0.5157143	"Man"	47.599264	8.1137444	51.8732464	"Hombre"	"Isquémico"	73	"F7"	NA	80	NA	NA	NA	NA	NA	6	4	3	27.5	20.5	28	7	83	0	0	0	5	4	5	NA	NA	11	4	0	156	149	55.660207	83.5324056	161.6766204	18.6746616	26.3218188	71.9361052	37.3866058	43.2197962
"5"	"WP3HD15"	"2012-03-06"	"WP3HD15:182"	0.6	"Man"	81.190995	34.0998373333	129.2769473333	"Hombre"	"Isquémico"	73	"F8"	51	80	NA	NA	NA	NA	NA	0	4	3	28.5	22	31.5	10	92	0	0	0	5	4	5	NA	NA	11	4	0	182	175	25.666361	48.013235	84.592348	14.111949	12.078475	41.9761596667	22.8184113333	17.4576966667
"7"	"WP3HD19"	"2012-01-12"	"WP3HD19:130"	0.5735587	"Man"	39.7620485	8.20135	24.565898375	"Hombre"	"Isquémico"	82	"F6"	NA	95	NA	NA	NA	NA	NA	0	4	3	25	19	25.5	6	75.5	0	0	0	5	4	4	NA	NA	14	4	0	130	115	38.958457875	56.4506385	162.771548	32.203431375	43.304394875	45.218145	48.549577875	28.389165875
"9"	"WP3HD19"	"2012-03-05"	"WP3HD19:183"	0.5385714	"Man"	82.5648473333	49.9079166667	57.85956	"Hombre"	"Isquémico"	82	"F8"	49	95	NA	NA	NA	NA	NA	0	4	4	25	23	27	11.5	86.5	0	0	0	5	5	5	NA	NA	15	5	0	183	168	26.0159956667	42.9505933333	95.3541033333	13.5639496667	24.2574246667	37.5971301667	20.0478823333	15.7143291667
"11"	"WP3HD28"	"2012-04-02"	"WP3HD28:128"	0.5233333	"Man"	82.634738	38.1274188571	109.9893556429	"Hombre"	"Isquémico"	52	"F6"	NA	80	NA	NA	NA	NA	NA	6	4	3	28	16.5	27	9.5	81	2	0	0	5	5	3	NA	NA	7	3	2	128	115	25.827041	46.8064066429	90.3372525714	7.9749913571	25.5539434286	20.3584691429	13.8336969286	11.1053870714
"13"	"WP3HD28"	"2012-04-24"	"WP3HD28:150"	0.6051832	"Man"	86.6226173793	43.9623192759	115.4754578621	"Hombre"	"Isquémico"	52	"F7"	NA	80	NA	NA	NA	NA	NA	6	4	3	29	23	29	14.5	95.5	2	0	0	5	5	3	NA	NA	8	3	2	150	137	22.444610931	50.3785763448	110.660431	18.0428514828	19.8160145517	27.1779194138	21.267440069	18.9902151379
"15"	"WP3HD28"	"2012-05-29"	"WP3HD28:185"	0.5866667	"Man"	81.5391193333	38.0071758333	105.4665460833	"Hombre"	"Isquémico"	52	"F8"	50	80	NA	NA	NA	NA	NA	6	4	3	NA	NA	NA	NA	NA	3	0	1	4	4	4	NA	NA	9	4	3	185	172	24.6604579167	44.15811775	84.1428886667	6.0051400833	25.66905175	18.5166204167	18.72107875	12.77711125
"17"	"WP3HD28"	"2011-12-15"	"WP3HD28:19"	0.44	"Man"	41.1970928333	23.7087691667	19.82217025	"Hombre"	"Isquémico"	52	"F2"	37	65	4	2	NA	NA	NA	0	3	3	30	18	24	24	96	1	0	0	3	3	3	4	24	NA	3	1	19	6	54.0528685833	71.9945880833	121.1582285833	21.013241	51.1453494167	56.420835	66.2005538333	14.07080125
"19"	"WP3HD28"	"2012-02-29"	"WP3HD28:95"	0.4939872	"Man"	83.865715	30.1064698182	84.1703281818	"Hombre"	"Isquémico"	52	"F5"	54	85	NA	NA	NA	NA	NA	3.2999999523	4	3	25.5	21.5	27	16.5	90.5	1	0	0	5	4	3	NA	NA	8	3	1	95	82	27.4281599091	51.7556079091	98.0732017273	5.816727	18.4918232727	19.0279773636	13.1541750909	8.9942201818
"21"	"WP3HD35"	"2012-05-08"	"WP3HD35:122"	0.9483333	"Man"	91.15604575	9.616523	9.0203415	"Hombre"	"Isquémico"	46	"F6"	NA	100	NA	NA	NA	NA	NA	0	5	5	25	20.5	25	6	76.5	0	0	0	5	5	5	NA	NA	5	5	0	122	116	33.64242775	47.84290075	114.5175725	22.23032075	23.67241975	33.94173725	34.94632575	36.1485275
"23"	"WP3HD35"	"2012-06-07"	"WP3HD35:152"	0.7553936	"Man"	95.448985	9.5850642	89.8351716	"Hombre"	"Isquémico"	46	"F7"	NA	100	NA	NA	NA	NA	NA	0	5	5	24.5	20	24	6	74.5	0	0	0	5	5	5	NA	NA	5	5	0	152	146	41.7904216	63.8058616	115.8541394	9.7701066	35.0334336	48.1126114	32.0282444	29.694542
"25"	"WP3HD35"	"2012-07-04"	"WP3HD35:179"	0.7524372	"Man"	92.241655	13.3848155	106.8790965	"Hombre"	"Isquémico"	46	"F8"	56	100	NA	NA	NA	NA	NA	0	5	5	25	24	26	9	84	0	0	0	5	5	5	NA	NA	5.3000001907	5	0	179	173	34.882362	56.953685	126.265248	11.62281425	31.25336675	63.51177525	21.68923475	23.72687125
"27"	"WP3HD35"	"2012-02-23"	"WP3HD35:47"	0.7246551	"Man"	92.14669575	32.503777625	69.44643075	"Hombre"	"Isquémico"	46	"F4"	NA	100	NA	NA	NA	NA	NA	0	5	5	25.5	24	27	11	87.5	0	0	0	5	5	5	NA	NA	6	5	0	47	41	38.46698275	46.314122625	106.075287125	8.633205625	32.8049195	37.08270775	37.000365875	26.03142475
"29"	"WP3HD35"	"2012-04-12"	"WP3HD35:96"	0.7384905	"Man"	84.9584285714	27.1653016429	36.7094342143	"Hombre"	"Isquémico"	46	"F5"	56	100	NA	NA	NA	NA	NA	0	5	5	24	12	26	9	86	0	0	0	5	5	5	NA	NA	7	5	0	96	90	34.5000132143	56.5436687143	132.3260105	20.6827115714	25.8287552143	35.2515849286	38.4573627857	33.3548546429
"31"	"WP3HD36"	"2012-05-24"	"WP3HD36:123"	0.7626173	"Man"	100.1869341667	19.6942068333	13.994457	"Hombre"	"Isquémico"	38	"F6"	NA	100	NA	NA	NA	NA	NA	0	5	5	24	18	17.5	6	65.5	0	0	0	5	4	5	NA	NA	6	4	0	123	115	32.5003741667	48.3179741667	123.0067498333	16.4300018333	28.0567411667	36.4405461667	23.6879023333	19.5598811667
"33"	"WP3HI17"	"2012-02-13"	"WP3HI17:153"	0.6957143	"Man"	80.541687625	48.007717375	43.79387	"Mujer"	"Isquémico"	39	"F7"	NA	80	NA	NA	NA	NA	NA	0	4	4	18.5	19.5	14.5	10.5	63	0	0	0	4	4	3	NA	NA	10	3	0	153	143	30.763311125	46.024198375	24.918606	23.199742375	34.531830875	37.287509125	78.101881875	20.792869375
"35"	"WP3HI17"	"2012-03-13"	"WP3HI17:182"	0.6585028	"Man"	79.421579875	29.66021725	85.676662125	"Mujer"	"Isquémico"	39	"F8"	53	85	NA	NA	NA	NA	NA	0	5	4	20.5	21.5	14	7	63	0	0	0	5	4	3	NA	NA	10	3	0	182	172	31.981094875	51.6031505	22.169289	20.1376075	37.886177	41.03830675	88.768280125	10.548963875
"37"	"WP3HI18"	"2012-01-13"	"WP3HI18:124"	0.6471429	"Man"	85.4611951429	23.3811364286	58.8637118571	"Mujer"	"Isquémico"	71	"F6"	NA	95	NA	NA	NA	NA	NA	0	5	4	24	20.5	26	7	77.5	0	0	0	4	5	4	NA	NA	14	4	0	124	115	30.1961014286	40.703542	26.7399911429	29.710807	25.470686	30.7018568571	67.172756	17.0460522857
"39"	"WP3HI18"	"2012-02-13"	"WP3HI18:155"	0.6271429	"Man"	89.0544415625	7.1532776875	26.8742831875	"Mujer"	"Isquémico"	71	"F7"	NA	85	NA	NA	NA	NA	NA	0	4	3	26	26	25	7	84	1	0	0	4	5	4	NA	NA	12	4	1	155	146	26.8634705625	44.12392325	18.3005966875	18.9565531875	23.207186375	26.989752875	55.309170875	15.4061369375
"41"	"WP3HI18"	"2012-03-12"	"WP3HI18:183"	0.63	"Man"	94.1770443182	20.2983767273	70.9618690455	"Mujer"	"Isquémico"	71	"F8"	51	85	NA	NA	NA	NA	NA	0	4	3	25.5	23	25.5	20	95.5	1	0	0	4	4	3	NA	NA	10	3	1	183	174	20.7834559091	37.3482092727	21.4052445455	8.8372660909	27.7269243636	27.609966	49.4967247727	10.4638008636
"43"	"WP3HI18"	"2011-10-27"	"WP3HI18:46"	0.38	"Man"	41.7363515	117.03908825	87.035499	"Mujer"	"Isquémico"	71	"F4"	NA	75	NA	NA	NA	NA	NA	0	3	3	NA	NA	NA	NA	NA	0	0	0	4	4	3	NA	NA	26	3	0	46	37	58.96868275	65.03960025	93.78771175	8.78523175	40.7950205	54.23482275	31.620872	27.51657225
"45"	"WP3HI24"	"2012-02-13"	"WP3HI24:123"	0.3557143	"Man"	74.0936181875	31.4037591875	12.1365039375	"Hombre"	"Isquémico"	69	"F6"	NA	80	NA	NA	NA	NA	NA	0	3	3	28	22	20.5	8.5	79	0	0	0	4	4	4	NA	NA	18	4	0	123	116	25.081533125	26.81214325	21.144353375	13.8381593125	18.2640501875	19.283280875	59.0765835625	8.2541540625
"47"	"WP3HI24"	"2012-04-12"	"WP3HI24:182"	0.73	"Man"	91.5550851818	5.4046652727	81.9824211818	"Hombre"	"Isquémico"	69	"F8"	51	95	NA	NA	NA	NA	NA	0	5	4	26	21	25.5	7	79.5	0	0	0	4	4	4	NA	NA	13	4	0	182	175	26.2882200909	25.2330992727	21.2789596364	14.7383918182	24.7562037273	24.284467	76.30832	7.8767741818
"49"	"WP3HI30"	"2012-04-03"	"WP3HI30:117"	0.9383333	"Man"	106.38833	0.6538325	169.5425055	"Hombre"	"Isquémico"	34	"F6"	NA	100	NA	NA	NA	NA	NA	0	5	5	26.5	20	15.5	11.5	73.5	0	0	0	5	5	5	NA	NA	8	5	0	117	106	25.1323755	32.941023	26.3657995	18.2527	28.8204035	29.03316	82.8594105	16.0172745
"51"	"WP3HI30"	"2012-05-08"	"WP3HI30:152"	0.9866667	"Man"	95.1138608	39.3285559	84.2498128	"Hombre"	"Isquémico"	34	"F7"	NA	100	NA	NA	NA	NA	NA	0	5	5	25	20	17.5	11	73.5	0	0	0	5	5	5	NA	NA	8	5	0	152	141	28.6303964	48.5594151	24.0594556	16.0316	31.7941959	52.8442622	113.0473096	11.2810143
"53"	"WP3HI30"	"2012-03-06"	"WP3HI30:89"	0.9116522	"Man"	99.3730918462	61.0126922308	87.3406017692	"Hombre"	"Isquémico"	34	"F5"	56	100	NA	NA	NA	NA	NA	0	5	5	26	20.5	16.5	12	75	0	0	0	5	5	5	NA	NA	9	5	0	89	78	18.213791	30.5706693077	22.5250716154	26.37194	29.3374106923	48.5912044615	104.4707426923	12.6022315385
"55"	"WP3HI31"	"2012-04-11"	"WP3HI31:121"	0.41	"Man"	85.0050027273	34.4468207273	35.2212429091	"Hombre"	"Isquémico"	75	"F6"	NA	75	NA	NA	NA	NA	NA	0	4	3	18.5	20	10	8	51.5	2	0	0	4	3	3	NA	NA	21	3	2	121	112	19.8185565455	34.5328483636	23.1576192727	27.3304602727	20.0675850909	16.4478234545	46.9100416364	10.5680756364
"57"	"WP3HI31"	"2012-05-22"	"WP3HI31:162"	0.52125	"Man"	87.2598097778	46.6348408889	17.2919687778	"Hombre"	"Isquémico"	75	"F7"	NA	75	NA	NA	NA	NA	NA	0	4	3	19	15	15	9.5	58.5	3	0	0	3	4	4	NA	NA	15	3	3	162	153	28.808682	45.9154617778	25.4539616111	19.4950795	23.7121397222	16.7035457778	49.5281498333	12.9629063889
"59"	"WP3HI31"	"2012-06-12"	"WP3HI31:183"	0.566914	"Man"	90.098621	28.51718875	18.6819865	"Hombre"	"Isquémico"	75	"F8"	47	85	NA	NA	NA	NA	NA	0	4	3	14.5	11	12	9	46.5	0	0	0	4	4	3	NA	NA	16	3	0	183	174	32.77052675	41.97791025	25.42489225	14.14574925	27.01882825	21.852664	58.1745525	12.0772535
"61"	"WP3HI31"	"2012-03-12"	"WP3HI31:91"	0.4395171	"Man"	84.7773352727	48.4877403636	37.1227559091	"Hombre"	"Isquémico"	75	"F5"	37	80	NA	NA	NA	NA	NA	0	3	3	22	13	15.5	10.5	61	2	0	0	3	3	3	NA	NA	26	3	2	91	82	20.4437354545	32.6863589091	20.2411595455	12.5165439091	16.1739941818	13.2885197273	42.9993423636	11.1101070909
"63"	"WP3HI34"	"2012-05-02"	"WP3HI34:120"	0.33	"Man"	50.7436426154	47.2231496154	34.6014583077	"Hombre"	"Isquémico"	49	"F6"	NA	80	NA	NA	NA	NA	NA	0	4	3	22	19.5	16	15.5	73	2	0	0	4	4	3	NA	NA	26	3	2	120	113	35.0879502308	48.6296406923	25.6516327692	12.0510429231	23.3261656923	25.7325235385	47.3188863846	15.2518086923
"65"	"WP3HI34"	"2012-06-05"	"WP3HI34:154"	0.2966667	"Man"	49.9243610714	39.5935332857	29.2807625	"Hombre"	"Isquémico"	49	"F7"	NA	80	NA	NA	NA	NA	NA	0	3	3	18	17.5	11.5	10.5	57.5	0	0	0	4	4	3	NA	NA	34	3	0	154	147	27.8994516429	45.0700300714	23.1742767857	31.7765945	32.9681697143	36.1748182857	54.8640611429	21.3903350714
"67"	"WP3HI34"	"2012-07-04"	"WP3HI34:183"	0.3915635	"Man"	81.6085155	125.2360395	56.281412	"Hombre"	"Isquémico"	49	"F8"	48	95	NA	NA	NA	NA	NA	0	4	4	21.5	19	6.5	10	57	0	0	0	4	3	2	NA	NA	26	2	0	183	176	5.9896585	22.1876325	18.821147	21.919454	13.126308	20.483388	31.830772	12.284575
"69"	"WP3HI34"	"2012-02-16"	"WP3HI34:44"	0.39	"Man"	64.1131586667	22.1050950667	65.5804130667	"Hombre"	"Isquémico"	49	"F4"	NA	70	NA	NA	NA	NA	NA	0	3	3	20.5	23.5	20.5	18	82.5	1	0	0	4	3	3	NA	NA	23	3	1	44	37	36.2524024667	55.5649821333	23.2086708	9.3745442	27.1564352	29.5148314	57.9609944667	17.6178634667
"71"	"WP3HI34"	"2012-04-03"	"WP3HI34:91"	0.2633333	"Man"	56.84801275	7.7895904167	15.61762525	"Hombre"	"Isquémico"	49	"F5"	45	85	NA	NA	NA	NA	NA	0	4	3	19	19.5	16	17	71.5	1	0	0	4	4	3	NA	NA	35	3	1	91	84	21.206156	36.0081930833	18.5037776667	23.13016225	18.2661985	23.68704325	50.6190846667	19.3426814167
"73"	"WP3MD23"	"2012-03-07"	"WP3MD23:153"	0.4725	"Woman"	104.144963	29.043245	82.7624181111	"Mujer"	"Isquémico"	72	"F6"	NA	80	NA	NA	NA	NA	NA	4.3000001907	4	4	27	20.5	28	8	83.5	0	0	0	5	4	3	NA	NA	22	3	0	153	139	31.6306293333	46.8085785556	77.721466	8.5066816667	15.5165371111	33.7348162222	18.3900526667	17.6305046667
"75"	"WP3MD23"	"2012-04-04"	"WP3MD23:181"	0.6714341	"Woman"	109.2795722	35.0718862	41.5502278	"Mujer"	"Isquémico"	72	"F8"	50	90	NA	NA	NA	NA	NA	1.5	4	4	25	20.5	28	8.5	82	0	0	0	5	4	3	NA	NA	17	3	0	181	167	21.0213	29.4765194	64.5093496	11.4540594	17.0312098	28.654191	23.1948916	14.5429716
"77"	"WP3MD23"	"2012-01-13"	"WP3MD23:99"	0.4175856	"Woman"	37.0188233333	12.0476676667	15.80916	"Mujer"	"Isquémico"	72	"F5"	43	85	NA	NA	NA	NA	NA	0	4	3	25.5	26.5	20.5	7.5	80	0	0	1	5	4	4	NA	NA	25	4	1	99	85	44.9446046667	66.4612896667	122.9224756667	40.690239	34.9251676667	49.8749946667	43.2059366667	39.007451
"79"	"WP3MD26"	"2012-04-27"	"WP3MD26:182"	0.47	"Woman"	80.6052453571	31.1795404286	37.5330437143	"Mujer"	"Isquémico"	54	"F8"	56	100	NA	NA	NA	NA	NA	0	5	5	28	21	16	7.5	72.5	0	0	0	2	2	5	NA	NA	10	2	0	182	165	21.2435173571	32.4168708571	62.6377350714	9.5208388571	13.6235529286	23.5654377857	16.2899230714	19.5947835
"81"	"WP3MD32"	"2012-02-16"	"WP3MD32:102"	0.1966667	"Woman"	57.6975048333	12.6829556667	2.3430188333	"Mujer"	"Hemorrágico"	50	"F5"	43	85	NA	NA	NA	NA	NA	0	3	3	19	18.5	19	17.5	74	2	0	0	4	3	0	NA	NA	41	0	2	102	72	29.8561303333	44.401179	50.9912746667	17.6485451667	18.2802965	18.0749863333	22.5966591667	22.3681808333
"83"	"WP3MD32"	"2012-03-12"	"WP3MD32:127"	0.2605735	"Woman"	65.3147642	45.9110134	11.6582721	"Mujer"	"Hemorrágico"	50	"F6"	NA	90	NA	NA	NA	NA	NA	0	4	4	20.5	17	16	17	70.5	2	0	0	3	3	0	NA	NA	36	0	2	127	97	20.8294514	31.6808884	43.2881041	13.1441975	12.1250517	10.6519223	21.700735	22.7743358
"85"	"WP3MD32"	"2012-04-12"	"WP3MD32:158"	0.2358712	"Woman"	60.9204181	18.2348252	21.756584	"Mujer"	"Hemorrágico"	50	"F7"	NA	90	NA	NA	NA	NA	NA	0	4	3	19.5	17.5	17.5	17.5	72	2	0	0	3	3	0	NA	NA	31	0	2	158	128	29.9853791	35.5349432	46.5403153	11.2897298	23.740191	25.7809803	15.6760274	18.9847459
"87"	"WP3MD32"	"2012-05-08"	"WP3MD32:184"	0.27375	"Woman"	62.6471324545	31.9228716364	20.3370470909	"Mujer"	"Hemorrágico"	50	"F8"	39	95	NA	NA	NA	NA	NA	0	4	3	18.5	16.5	20.5	16	71.5	3	0	0	4	2	0	NA	NA	26	0	3	184	154	25.7766277273	38.4527677273	67.9778980909	19.4357405455	16.2560064545	17.5012340909	20.1742203636	28.7881739091
"89"	"WP3MD38"	"2012-06-13"	"WP3MD38:121"	0.3277099	"Woman"	66.3099141538	43.3422306923	63.158074	"Mujer"	"Hemorrágico"	82	"F6"	NA	85	NA	NA	NA	NA	NA	6	5	5	17	22.5	21.5	14	75	0	0	1	4	3	5	NA	NA	23	3	1	121	112	14.0685363077	22.1896605385	56.9676923846	14.7145652308	5.5965986923	26.6167576154	17.5623794615	16.0341764615
"91"	"WP3MD38"	"2012-07-16"	"WP3MD38:154"	0.3092584	"Woman"	62.8079235	7.1000319167	4.517496	"Mujer"	"Hemorrágico"	82	"F7"	NA	70	NA	NA	NA	NA	NA	0	3	3	21.5	16.5	16	8.5	62.5	0	0	0	4	3	5	NA	NA	31	3	0	154	145	16.374292	32.0490729167	69.4956908333	13.2445574167	11.9907498333	23.13188725	15.0662378333	14.20412175
"93"	"WP3MD38"	"2012-09-12"	"WP3MD38:212"	0.4841422	"Woman"	63.636364	30.251123	15.14682	"Mujer"	"Hemorrágico"	82	"F8"	41	85	NA	NA	NA	NA	NA	0	4	2	22.5	17	14.5	10.5	64.5	0	0	0	5	5	5	NA	NA	31.1000003815	5	0	212	203	13.571632	23.57817	17.620964	10.011834	14.545036	34.843078	74.018819	13.88012
"95"	"WP3MD38"	"2012-04-12"	"WP3MD38:59"	0.4644502	"Woman"	90.5246825	59.6288235	17.516126	"Mujer"	"Hemorrágico"	82	"F4"	NA	70	NA	NA	NA	NA	NA	0	4	3	19	18.5	21.5	15	74	0	0	0	5	4	4	NA	NA	26	4	0	59	50	12.055244	22.4523245	48.1004835	12.568341	7.9347825	25.1285785	16.0838545	11.9401005
"97"	"WP3MD38"	"2012-05-17"	"WP3MD38:94"	0.3262237	"Woman"	61.5543647059	23.155875	29.5853765294	"Mujer"	"Hemorrágico"	82	"F5"	40	75	NA	NA	NA	NA	NA	0	3	3	24	19.5	27	14.5	85	0	0	1	3	3	4	NA	NA	31	3	1	94	85	18.4478024118	30.5839192941	64.796835	12.8860348824	11.7314914706	31.5581575882	19.5582858824	13.7282328824
"99"	"WP3MI13"	"2012-02-09"	"WP3MI13:184"	0.73	"Woman"	73.5085937143	18.7302158571	29.6403097143	"Mujer"	"Isquémico"	45	"F8"	51	90	NA	NA	NA	NA	NA	9	4	4	26	22.5	26.5	17	92	0	0	0	5	5	5	NA	NA	8	5	0	184	174	24.3107975714	48.5390448571	20.0342075714	29.962867	33.7966257143	46.6910054286	95.2587325714	12.5503275714
"101"	"WP3MI16"	"2012-02-17"	"WP3MI16:163"	0.3133333	"Woman"	99.4476520769	16.7394905385	35.7312419231	"Mujer"	"Isquémico"	63	"F7"	NA	95	NA	NA	NA	NA	NA	6.1999998093	4	3	21	18	25.5	15	79.5	0	0	1	4	5	4	NA	NA	22	4	1	163	147	14.3558945385	22.883372	19.115587	13.4900266154	15.6917329231	22.9297992308	40.3883968462	14.4245706154
"103"	"WP3MI16"	"2012-03-06"	"WP3MI16:181"	0.6073631	"Woman"	110.44473575	16.3968085	41.0043375	"Mujer"	"Isquémico"	63	"F8"	46	85	NA	NA	NA	NA	NA	7.5	3	3	24.5	20.5	22.5	23	90.5	0	0	0	4	4	4	NA	NA	16	4	0	181	165	13.48748225	27.202792	21.937028	8.364702	18.020438	22.08329725	33.87000275	14.0228785
"105"	"WP3MI22"	"2012-02-23"	"WP3MI22:144"	0.5151175	"Woman"	71.0986203333	41.4397706667	35.1267775	"Mujer"	"Isquémico"	77	"F6"	NA	95	NA	NA	NA	NA	NA	0	5	4	26.5	20.5	20	6.5	73.5	0	0	0	5	4	5	NA	NA	14	4	0	144	135	17.1008405	40.6375748333	17.7175311667	10.9588526667	15.5377348333	30.6461856667	75.0044035	18.4190825
"107"	"WP3MI22"	"2012-04-02"	"WP3MI22:183"	0.7106685	"Woman"	82.4978538	20.161599	37.3113809	"Mujer"	"Isquémico"	77	"F8"	54	95	NA	NA	NA	NA	NA	0	5	4	25	14	13.5	4.5	62	0	0	0	5	5	5	NA	NA	12	5	0	183	174	19.9714729	43.1082873	21.1851142	12.9041466	19.8058999	40.9503568	93.9499122	13.1269453
"109"	"WP3MI27"	"2012-03-06"	"WP3MI27:123"	0.5617979	"Woman"	94.6114764286	15.1918235714	39.8958618571	"Mujer"	"Hemorrágico"	62	"F6"	NA	70	NA	NA	NA	NA	NA	0	3	3	32	24	30	16	102	0	0	0	4	3	3	NA	NA	17	3	0	123	116	13.2081595714	22.242122	24.1537795714	11.7456131429	13.9410972857	24.2798968571	44.7606901429	8.0172201429
"111"	"WP3MI27"	"2012-04-04"	"WP3MI27:152"	0.4683333	"Woman"	98.3592247692	41.6278548462	18.4637618462	"Mujer"	"Hemorrágico"	62	"F7"	NA	75	NA	NA	NA	NA	NA	0	3	3	28.5	21	28	13.5	91	0	0	0	3	4	2	NA	NA	16	2	0	152	145	16.7391560769	21.4601254615	30.3491572308	17.4733627692	18.7616973846	24.0972178462	41.435862	17.6837436923
"113"	"WP3MI27"	"2012-02-06"	"WP3MI27:94"	0.3718014	"Woman"	46.043882	20.7135202222	14.4092156667	"Mujer"	"Hemorrágico"	62	"F5"	42	60	NA	NA	NA	NA	NA	0	3	2	22.5	21	27	15	85.5	1	0	0	4	3	3	NA	NA	25	3	1	94	87	32.9001691111	47.808279	37.2533723333	27.5704706667	42.9904925556	55.1563333333	61.627116	22.9145908889
"115"	"WP3MI29"	"2012-04-02"	"WP3MI29:120"	0.9316667	"Woman"	93.08479525	5.519593	133.565336375	"Mujer"	"ISQUÉMICO"	45	"F6"	NA	100	NA	NA	NA	NA	NA	0	5	4	27	21	16	8.5	72.5	0	0	0	5	4	5	NA	NA	6	4	0	120	108	38.946680375	47.150609625	41.9292435	8.117039125	35.486221125	50.93623825	112.87788	19.983191875
"117"	"WP3MI29"	"2012-05-03"	"WP3MI29:151"	0.8433333	"Woman"	91.9270335333	8.2417278	55.5890715333	"Mujer"	"ISQUÉMICO"	45	"F7"	NA	100	NA	NA	NA	NA	NA	0	5	5	28	21	19	7.5	75.5	0	0	0	5	4	5	NA	NA	6	4	0	151	139	34.5076403333	38.5061850667	44.3916149333	14.0571468667	33.4781406	56.6082116667	124.9205653333	8.7730199333
"119"	"WP3MI39"	"2012-06-25"	"WP3MI39:122"	0.7116747	"Woman"	84.5676706364	34.2519582727	24.6237893636	"Mujer"	"Isquémico"	62	"F6"	NA	95	NA	NA	NA	NA	NA	0	5	5	27	21	25	18	91	0	0	0	5	4	5	NA	NA	12	4	0	122	115	22.19971	23.2498963636	21.3732529091	22.8014895455	21.5857889091	32.8361689091	90.5150261818	28.9294277273
"121"	"WP3MI39"	"2012-07-23"	"WP3MI39:150"	0.7802517	"Woman"	89.5334096923	57.8840174615	45.6074676154	"Mujer"	"Isquémico"	62	"F7"	NA	100	NA	NA	NA	NA	NA	0	5	5	24.5	16	22	14.5	77	0	0	0	5	4	5	NA	NA	13	4	0	150	143	18.4954272308	19.6180061538	21.0060434615	16.6330884615	30.4230322308	42.6433429231	92.2325804615	8.9342916923
"123"	"WP3MI39"	"2012-09-06"	"WP3MI39:195"	0.6498731	"Woman"	89.4277388571	7.9098741429	61.0848864286	"Mujer"	"Isquémico"	62	"F8"	56	100	NA	NA	NA	NA	NA	0	5	5	28	18	25	14	85	0	0	0	NA	5	5	NA	NA	12	5	0	195	188	23.9117421429	26.1586424286	20.1442471429	9.3708302857	24.7262075714	26.0160957143	74.2456005714	17.5880611429
"125"	"WP3MI39"	"2012-04-12"	"WP3MI39:48"	0.5483333	"Woman"	77.2921048	8.0537622	15.7734496	"Mujer"	"Isquémico"	62	"F4"	NA	90	NA	NA	NA	NA	NA	0	4	3	24	21.5	24	15.5	85	0	0	0	5	4	4	NA	NA	14	4	0	48	41	13.9641848	16.4335136	26.4518112	9.9373526	23.9406342	25.8871846	69.126123	16.5075822
"127"	"WP3MI39"	"2012-05-24"	"WP3MI39:90"	0.6433333	"Woman"	86.7591591765	24.8349852941	37.5312022353	"Mujer"	"Isquémico"	62	"F5"	52	90	NA	NA	NA	NA	NA	0	3	3	27.5	22	26.5	12.5	88.5	0	0	0	5	5	5	NA	NA	11	5	0	90	83	24.5139511176	29.886702	20.2156428824	14.2505971765	31.5965577059	35.8773831765	74.7017531176	10.1180842353
