id,idPatient,CODE,CODIGO,Cod_Fusion,BirthDate,edad,Gender,Aetiology,Side,StrokeDate,StartOfRehabilitation,DischargeDate,TALTA,DIAS_R,DIAS_I,DIAS,trhb,Height,Weight,ThightLength,LegLenth,FASE_REC,FACHS_F3,FACHS_F5,FAC_F5,FAC_F3,Phase,FechaDeMedida,BBS,BI,BipHS,CapHS,CNSParte_A,CNSParte_B,CNSTotal,EVA,FAC,FACHS,MASCuadriceps,MASPsoas,MASTibial_anterior,MMTCuadriceps,MMTPsoas,MMTTibial_anterior,SedHS,TCT,TUG,biomec,Lado,Velocidad,Tiempo_apoyo,Coefs_Fz1,Coefs_Fz2,Coefs_Fz3,Coefs_Fz4,Coefs_Fy1,Coefs_Fy2,Coefs_Fy3,Coefs_Fy4,Coefs_Fx1,Coefs_Fx2,Coefs_Fx3,Coefs_Fx4
2,313,37,WP3MI39,WP3MI39:F5,1949-12-16,62,Mujer,Isquemico,Izquierda,2012-02-24,2012-02-28,2012-03-02,90,86,90,7,4,154.5,72.5,37.5,45,1,3,3,4,4,F5,2012-05-24,52,90,NA,NA,NA,NA,NA,0,2,3,0,0,0,5,5,5,NA,NA,11,1,Afecto,0.643333333333333,0.898888888888889,0.634433333333333,0.0999222222222222,-0.407188888888889,-0.240144444444444,0.0557777777777778,0.00188888888888889,-0.0308111111111111,-0.0905333333333333,-0.200511111111111,-0.0272333333333333,-0.0991666666666667,0.0878555555555555
4,311,37,WP3MI39,WP3MI39:F4,1949-12-16,62,Mujer,Isquemico,Izquierda,2012-02-24,2012-02-28,2012-03-02,48,44,48,7,4,154.5,72.5,37.5,45,1,3,3,4,4,F4,2012-04-12,NA,90,NA,NA,NA,NA,NA,0,3,3,0,0,0,5,4,4,NA,NA,14,1,Afecto,0.548333333333333,1.03333333333333,0.38305,0.771183333333333,-0.121216666666667,-0.2063,-0.0948333333333333,-0.0217666666666667,-0.0326833333333333,0.00281666666666667,-0.00866666666666666,0.019,-0.0910166666666667,0.0255666666666667
6,309,37,WP3MI39,WP3MI39:F3,1949-12-16,62,Mujer,Isquemico,Izquierda,2012-02-24,2012-02-28,2012-03-02,26,22,26,7,4,154.5,72.5,37.5,45,1,3,3,4,4,F3,2012-03-21,48,80,NA,NA,NA,NA,NA,6.09999990463257,2,3,0,0,0,4,4,4,NA,NA,16,1,Afecto,0.485439,0.923333333333333,0.185166666666667,0.867633333333333,0.137366666666667,0.101466666666667,-0.131066666666667,0.01525,-0.0264333333333333,0.05005,0.100516666666667,0.1552,-0.0511666666666667,0.0189833333333333
8,307,37,WP3MI39,WP3MI39:F2,1949-12-16,62,Mujer,Isquemico,Izquierda,2012-02-24,2012-02-28,2012-03-02,26,22,26,7,4,154.5,72.5,37.5,45,NA,3,3,4,4,NA,2012-03-21,48,80,4,4,NA,NA,NA,6.09999990463257,2,3,0,0,0,4,4,4,4,100,16,1,Afecto,0.485439,0.923333333333333,0.185166666666667,0.867633333333333,0.137366666666667,0.101466666666667,-0.131066666666667,0.01525,-0.0264333333333333,0.05005,0.100516666666667,0.1552,-0.0511666666666667,0.0189833333333333
10,303,27,WP3MI29,WP3MI29:F7,1966-05-28,46,Mujer,Isquemico,Izquierda,2011-12-04,2011-12-09,2011-12-16,151,146,151,12,5,158,51,38,45.5,2,3,4,6,4,F7,2012-05-03,NA,100,NA,NA,NA,NA,NA,0,4,5,0,0,0,5,4,5,NA,NA,6,1,Afecto,0.843333333333333,0.833333333333333,1.0108,0.624166666666667,-0.395833333333333,-0.330483333333333,0.00263333333333333,-0.0115,-0.0506,-0.0557,-0.363033333333333,-0.0760833333333334,-0.189483333333333,-0.02955
12,301,27,WP3MI29,WP3MI29:F6,1966-05-28,46,Mujer,Isquemico,Izquierda,2011-12-04,2011-12-09,2011-12-16,120,115,120,12,5,158,51,38,45.5,2,3,4,6,4,F6,2012-04-02,NA,100,NA,NA,NA,NA,NA,0,4,4,0,0,0,5,4,5,NA,NA,6,1,Afecto,0.931666666666667,0.796666666666667,1.27438333333333,0.12485,-0.216333333333333,-0.115716666666667,-0.03155,-0.0341,-0.0178166666666667,-0.0516333333333333,-0.483916666666667,-0.0972666666666667,-0.12065,-0.0572666666666667
14,299,27,WP3MI29,WP3MI29:F5,1966-05-28,46,Mujer,Isquemico,Izquierda,2011-12-04,2011-12-09,2011-12-16,92,87,92,12,5,158,51,38,45.5,1,3,4,6,4,F5,2012-03-05,53,100,NA,NA,NA,NA,NA,0,4,4,0,0,0,5,4,4,NA,NA,8,1,Afecto,0.862857142857143,0.828571428571429,1.12192857142857,0.507257142857143,-0.0962571428571428,-0.176928571428571,-0.00772857142857143,-0.0217142857142857,-0.0254,-0.0319571428571429,-0.336757142857143,-0.162328571428571,-0.131442857142857,-0.0879857142857143
16,297,27,WP3MI29,WP3MI29:F4,1966-05-28,46,Mujer,Isquemico,Izquierda,2011-12-04,2011-12-09,2011-12-16,50,45,50,12,5,158,51,38,45.5,1,3,4,6,4,F4,2012-01-23,NA,100,NA,NA,NA,NA,NA,0,3,4,1,1,0,5,4,4,NA,NA,8,1,Afecto,0.888159,0.802,1.2052,1.32408,0.32782,-0.79674,0.25504,0.01392,-0.0506,-0.0405,-0.14256,-0.13556,-0.2662,-0.09402
17,296,27,WP3MI29,WP3MI29:F3,1966-05-28,46,Mujer,Isquemico,Izquierda,2011-12-04,2011-12-09,2011-12-16,18,13,18,12,5,158,51,38,45.5,1,3,4,6,4,F3,2011-12-22,48,95,NA,NA,NA,NA,NA,0,2,3,1,0,1,5,4,4,NA,NA,10,1,Afecto,0.5888254,0.958,-0.20882,0.66014,-0.24636,-0.08688,0.081,-0.00692,-0.0351,0.01336,0.11514,-0.0528,0.00752,0.000739999999999999
19,294,27,WP3MI29,WP3MI29:F2,1966-05-28,46,Mujer,Isquemico,Izquierda,2011-12-04,2011-12-09,2011-12-16,18,13,18,12,5,158,51,38,45.5,NA,3,4,6,4,NA,2011-12-22,48,95,4,5,NA,NA,NA,0,2,3,1,0,1,5,4,4,5,100,10,1,Afecto,0.5888254,0.958,-0.20882,0.66014,-0.24636,-0.08688,0.081,-0.00692,-0.0351,0.01336,0.11514,-0.0528,0.00752,0.000739999999999999
22,290,25,WP3MI27,WP3MI27:F8,1949-05-25,63,Mujer,Hemorragico,Izquierda,2011-11-04,2011-11-08,2011-11-11,195,191,195,7,4,158,59.2999992370605,35.5,44,2,1,2,4,2,F8,2012-05-17,45,90,NA,NA,NA,NA,NA,0,2,3,1,0,0,4,3,2,NA,NA,12,1,Afecto,0.468571428571429,0.86,-2.45905714285714,-1.5203,-0.323714285714286,-0.120485714285714,-0.157042857142857,0.160971428571429,0.0666428571428571,-0.0319714285714286,0.259485714285714,-0.1024,0.143971428571429,0.0446571428571429
24,288,25,WP3MI27,WP3MI27:F7,1949-05-25,63,Mujer,Hemorragico,Izquierda,2011-11-04,2011-11-08,2011-11-11,152,148,152,7,4,158,59.2999992370605,35.5,44,2,1,2,4,2,F7,2012-04-04,NA,75,NA,NA,NA,NA,NA,0,2,3,0,0,0,3,4,2,NA,NA,16,1,Afecto,0.468333333333333,0.858333333333333,-2.3341,-1.11983333333333,-0.519166666666667,-0.303916666666667,-0.0552166666666667,0.162383333333333,0.0799,-0.0469166666666667,0.284616666666667,0.00933333333333334,0.1359,0.0713
26,286,25,WP3MI27,WP3MI27:F6,1949-05-25,63,Mujer,Hemorragico,Izquierda,2011-11-04,2011-11-08,2011-11-11,123,119,123,7,4,158,59.2999992370605,35.5,44,2,1,2,4,2,F6,2012-03-06,NA,70,NA,NA,NA,NA,NA,0,2,3,0,0,0,4,3,3,NA,NA,17,1,Afecto,0.415,0.895,-2.50176666666667,-1.27551666666667,-0.396066666666667,-0.11825,-0.11475,0.192333333333333,0.0681333333333333,-0.0193666666666667,0.294733333333333,-0.00398333333333333,0.1759,0.0738333333333333
28,279,20,WP3MI22,WP3MI22:F8,1934-01-26,78,Mujer,Isquemico,Izquierda,2011-10-02,2011-10-03,2011-10-11,183,182,183,9,1,160,66.0999984741211,39,47.5,2,NA,NA,NA,NA,F8,2012-04-02,54,95,NA,NA,NA,NA,NA,0,4,4,0,0,0,5,5,5,NA,NA,12,1,Afecto,0.604,0.924,0.13754,0.18358,-0.68358,-0.2695,-0.12696,0.06094,0.05034,-0.06664,-0.08804,-0.12386,-0.04458,0.04566
30,277,20,WP3MI22,WP3MI22:F6,1934-01-26,78,Mujer,Isquemico,Izquierda,2011-10-02,2011-10-03,2011-10-11,144,143,144,9,1,160,66.0999984741211,39,47.5,2,NA,NA,NA,NA,F6,2012-02-23,NA,95,NA,NA,NA,NA,NA,0,4,4,0,0,0,5,4,5,NA,NA,14,1,Afecto,0.507,1.078,0.01971,0.487,-1.16172,-0.09852,-0.06867,0.08398,0.01299,-0.04897,-0.01373,-0.12901,-0.04345,0.09169
32,272,14,WP3MI16,WP3MI16:F8,1948-05-13,64,Mujer,Isquemico,Izquierda,2011-09-07,2011-09-13,2011-09-23,181,175,181,16,6,156,71.3000030517578,39.5,46.5,2,1,2,4,NA,F8,2012-03-06,46,85,NA,NA,NA,NA,NA,7.5,2,3,0,0,0,4,4,4,NA,NA,16,1,Afecto,NA,0.782,0.30593,0.13854,-0.40097,-0.21775,-0.20166,-0.01172,-0.0282,-0.02388,-0.20894,-0.17353,-0.07745,0.15155
34,270,14,WP3MI16,WP3MI16:F7,1948-05-13,64,Mujer,Isquemico,Izquierda,2011-09-07,2011-09-13,2011-09-23,163,157,163,16,6,156,71.3000030517578,39.5,46.5,2,1,2,4,NA,F7,2012-02-17,NA,95,NA,NA,NA,NA,NA,6.19999980926514,3,3,0,0,1,4,5,4,NA,NA,22,1,Afecto,0.313333333333333,0.816666666666667,-1.6279,1.43136666666667,0.0685333333333333,0.411033333333333,0.0123333333333333,0.0398666666666667,-0.143633333333333,0.0984,0.4188,-0.0252666666666667,-0.0783,-0.0181
36,268,14,WP3MI16,WP3MI16:F6,1948-05-13,64,Mujer,Isquemico,Izquierda,2011-09-07,2011-09-13,2011-09-23,127,121,127,16,6,156,71.3000030517578,39.5,46.5,2,1,2,4,NA,F6,2012-01-12,NA,85,NA,NA,NA,NA,NA,0,2,3,0,0,0,5,4,4,NA,NA,15,1,Afecto,0.4992134,0.764,-0.86938,1.28078,0.58144,0.3033,-0.0271,0.07202,-0.15846,0.10708,0.19054,-0.21004,-0.09808,-0.05562
38,266,14,WP3MI16,WP3MI16:F5,1948-05-13,64,Mujer,Isquemico,Izquierda,2011-09-07,2011-09-13,2011-09-23,97,91,97,16,6,156,71.3000030517578,39.5,46.5,1,1,2,4,NA,F5,2011-12-13,45,85,NA,NA,NA,NA,NA,0,2,2,0,0,0,4,4,5,NA,NA,14,1,Afecto,0.4915156,0.88,-0.43096,1.54992,0.41694,0.20044,0.05534,0.0398,-0.14356,0.07442,0.1442,-0.02352,-0.1384,-0.05774
40,260,11,WP3MI13,WP3MI13:F8,1965-09-10,46,Mujer,Isquemico,Izquierda,2011-08-09,2011-08-12,2011-08-19,184,181,184,10,3,160,68.6999969482422,42,48,2,4,4,4,3,F8,2012-02-09,51,90,NA,NA,NA,NA,NA,9,3,4,0,0,0,5,5,5,NA,NA,8,1,Afecto,0.73,0.901428571428571,0.781714285714286,0.8521,-0.0851,-0.1986,0.0230857142857143,-0.0494142857142857,-0.00387142857142857,0.0179285714285714,-0.0281142857142857,0.0689142857142857,-0.186642857142857,0.0193428571428571
42,256,11,WP3MI13,WP3MI13:F6,1965-09-10,46,Mujer,Isquemico,Izquierda,2011-08-09,2011-08-12,2011-08-19,126,123,126,10,3,160,68.6999969482422,42,48,2,4,4,4,3,F6,2011-12-13,NA,90,NA,NA,NA,NA,NA,0,3,4,0,0,0,5,5,5,NA,NA,9,1,Afecto,0.934744166666666,0.785,1.22725,0.29741,0.40349,-0.11419,0.12646,-0.06621,0.0539,0.02447,-0.07698,0.06623,-0.18031,-0.05904
44,254,11,WP3MI13,WP3MI13:F5,1965-09-10,46,Mujer,Isquemico,Izquierda,2011-08-09,2011-08-12,2011-08-19,97,94,97,10,3,160,68.6999969482422,42,48,1,4,4,4,3,F5,2011-11-14,53,90,NA,NA,NA,NA,NA,0,2,4,0,0,0,5,5,5,NA,NA,10,1,Afecto,0.735,0.886666666666667,0.620783333333333,0.590883333333333,-0.355766666666667,-0.195766666666667,0.00253333333333333,-0.0341166666666667,0.0498833333333333,0.00906666666666667,-0.0302666666666667,-0.136316666666667,-0.191333333333333,0.0603
46,252,11,WP3MI13,WP3MI13:F4,1965-09-10,46,Mujer,Isquemico,Izquierda,2011-08-09,2011-08-12,2011-08-19,55,52,55,10,3,160,68.6999969482422,42,48,1,4,4,4,3,F4,2011-10-03,NA,90,NA,NA,NA,NA,NA,0,2,3,0,0,0,5,5,4,NA,NA,13,1,Afecto,0.646,0.944,0.31782,0.88136,-0.48868,-0.22896,0.09472,-0.02516,0.01738,-0.00332,0.04712,0.11786,-0.16744,0.09024
48,250,11,WP3MI13,WP3MI13:F3,1965-09-10,46,Mujer,Isquemico,Izquierda,2011-08-09,2011-08-12,2011-08-19,27,24,27,10,3,160,68.6999969482422,42,48,1,4,4,4,3,F3,2011-09-05,45,90,NA,NA,NA,NA,NA,0,1,4,0,0,1,5,5,4,NA,NA,12,1,Afecto,0.712098125,0.90375,1.3594125,0.5671875,0.1766625,-0.142675,0.0206,-0.0584375,0.035875,0.0328875,-0.034825,0.1332625,-0.1625375,-0.018275
50,243,36,WP3MD38,WP3MD38:F5,1929-11-29,83,Mujer,Hemorragico,Derecha,2012-02-13,2012-02-20,2012-02-22,94,87,94,9,7,145,63.7000007629395,36,41,1,2,3,4,NA,F5,2012-05-17,40,75,NA,NA,NA,NA,NA,0,2,3,0,0,1,3,3,4,NA,NA,31,1,Afecto,0.235,1.51,-1.66355,0.3687,-0.262475,0.26055,0.407425,0.112175,0.016725,-0.092225,0.36745,0.127275,0.048875,0.04665
52,241,36,WP3MD38,WP3MD38:F4,1929-11-29,82,Mujer,Hemorragico,Derecha,2012-02-13,2012-02-20,2012-02-22,59,52,59,9,7,145,63.7000007629395,36,41,1,2,3,4,NA,F4,2012-04-12,NA,70,NA,NA,NA,NA,NA,0,3,3,0,0,0,5,4,4,NA,NA,26,1,Afecto,0.202,1.386,-2.18992,0.91974,0.0286,0.57104,0.17222,0.08556,-0.04268,0.04682,0.40112,0.08888,-0.0083,0.024
54,236,30,WP3MD32,WP3MD32:F8,1961-01-16,51,Mujer,Hemorragico,Derecha,2011-11-06,2011-11-07,2011-12-06,184,183,184,30,1,158,46.7000007629395,38,48,2,1,3,4,NA,F8,2012-05-08,39,95,NA,NA,NA,NA,NA,0,3,3,3,0,0,4,2,0,NA,NA,26,1,Afecto,0.27375,1.46875,-1.3387375,0.429725,0.0342,0.7948875,0.0399125,0.035575,0.045425,0.0469375,0.3126625,0.0645,-0.0279375,-0.02745
56,232,30,WP3MD32,WP3MD32:F5,1961-01-16,51,Mujer,Hemorragico,Derecha,2011-11-06,2011-11-07,2011-12-06,102,101,102,30,1,158,46.7000007629395,38,48,1,1,3,4,NA,F5,2012-02-16,43,85,NA,NA,NA,NA,NA,0,2,3,2,0,0,4,3,0,NA,NA,41,1,Afecto,0.196666666666667,1.52333333333333,-1.3994,0.311966666666667,0.331733333333333,0.6087,0.0511333333333333,0.0174,0.0688333333333333,0.0421,0.367733333333333,0.0658666666666667,-0.0504666666666667,-0.0042
58,230,30,WP3MD32,WP3MD32:F4,1961-01-16,51,Mujer,Hemorragico,Derecha,2011-11-06,2011-11-07,2011-12-06,78,77,78,30,1,158,46.7000007629395,38,48,1,1,3,4,NA,F4,2012-01-23,NA,80,NA,NA,NA,NA,NA,0,2,3,2,0,0,NA,NA,NA,NA,NA,NA,1,Afecto,NA,1.62,-2.5577,1.3024,0.7027,1.099,0.1417,0.0789,-0.0146,0.0411,0.4454,0.1064,0.0172,0.0116
60,225,24,WP3MD26,WP3MD26:F8,1957-02-16,55,Mujer,Isquemico,Derecha,2011-10-28,2011-11-07,2011-11-14,182,172,182,17,10,171,66.8000030517578,40,51,2,2,3,5,4,F8,2012-04-27,56,100,NA,NA,NA,NA,NA,0,4,5,0,0,0,2,2,5,NA,NA,10,1,Afecto,0.47,1.05,-0.991266666666667,-0.330566666666667,-0.68875,-0.0890166666666667,0.07055,0.0813333333333333,0.0571333333333333,-0.09755,0.1893,0.183466666666667,0.121333333333333,0.09015
62,223,24,WP3MD26,WP3MD26:F5,1957-02-16,55,Mujer,Isquemico,Derecha,2011-10-28,2011-11-07,2011-11-14,90,80,90,17,10,171,66.8000030517578,40,51,1,2,3,5,4,F5,2012-01-26,50,95,NA,NA,NA,NA,NA,0,3,3,2,0,0,3,3,4,NA,NA,9,1,Afecto,0.4493978,1.082,0.12268,0.34962,-0.19912,-0.03856,0.0797,0.01696,0.03864,-0.01596,0.14684,0.16322,0.07162,0.00648
64,221,24,WP3MD26,WP3MD26:F3,1957-02-16,55,Mujer,Isquemico,Derecha,2011-10-28,2011-11-07,2011-11-14,26,16,26,17,10,171,66.8000030517578,40,51,1,2,3,5,4,F3,2011-11-23,48,95,NA,NA,NA,NA,NA,0,2,2,2,0,0,4,3,3,NA,NA,19,1,Afecto,0.2250305,1.5725,-0.59625,1.4249,-0.206525,0.458625,0.339125,-0.003525,-0.00215,-0.0041,0.287275,0.30565,0.001175,0.072025
66,217,21,WP3MD23,WP3MD23:F8,1939-04-13,73,Mujer,Isquemico,Derecha,2011-10-06,2011-10-11,2011-10-20,181,176,181,14,5,155,67.5,38.5,44.5,2,0,3,5,NA,F8,2012-04-04,50,90,NA,NA,NA,NA,NA,1.5,3,4,0,0,0,5,4,3,NA,NA,17,1,Afecto,0.542,0.876,-2.34922,-0.15116,-0.09362,-0.02552,0.0437,0.16664,0.0674,-0.021,0.17728,0.08688,0.18636,0.0425
68,215,21,WP3MD23,WP3MD23:F6,1939-04-13,73,Mujer,Isquemico,Derecha,2011-10-06,2011-10-11,2011-10-20,153,148,153,14,5,155,67.5,38.5,44.5,2,0,3,5,NA,F6,2012-03-07,NA,80,NA,NA,NA,NA,NA,4.30000019073486,3,4,0,0,0,5,4,3,NA,NA,22,1,Afecto,0.4725,0.895,-2.515725,-0.137775,-0.0838,0.200975,0.0215,0.1686,0.0588,-0.0058,0.251825,0.022325,0.17065,0.043425
70,213,21,WP3MD23,WP3MD23:F5,1939-04-13,73,Mujer,Isquemico,Derecha,2011-10-06,2011-10-11,2011-10-20,99,94,99,14,5,155,67.5,38.5,44.5,1,0,3,5,NA,F5,2012-01-13,43,85,NA,NA,NA,NA,NA,0,3,3,0,0,1,5,4,4,NA,NA,25,1,Afecto,0.248,1.258,-3.33288,-0.84314,1.1648,-0.8576,0.12488,0.13416,0.13404,0.01222,0.35856,0.05366,0.08516,-0.05522
72,206,32,WP3HI34,WP3HI34:F7,1962-04-07,50,Hombre,Isquemico,Izquierda,2012-01-03,2012-01-09,2012-01-10,154,148,154,7,6,180,80,43,49,2,1,3,5,NA,F7,2012-06-05,NA,80,NA,NA,NA,NA,NA,0,2,3,0,0,0,4,4,3,NA,NA,34,1,Afecto,0.296666666666667,1.28333333333333,-1.55903333333333,0.685433333333333,-0.135133333333333,0.553366666666667,0.108133333333333,0.0992333333333333,-0.0989,0.0417666666666667,0.2915,-0.0265666666666667,0.000533333333333333,-0.00603333333333333
74,204,32,WP3HI34,WP3HI34:F6,1962-04-07,50,Hombre,Isquemico,Izquierda,2012-01-03,2012-01-09,2012-01-10,120,114,120,7,6,180,80,43,49,2,1,3,5,NA,F6,2012-05-02,NA,80,NA,NA,NA,NA,NA,0,3,3,2,0,0,4,4,3,NA,NA,26,1,Afecto,0.33,1.34,-1.27233333333333,-0.0239666666666667,-0.295966666666667,-0.0790333333333333,0.0741666666666667,0.0366333333333333,0.0705333333333333,0.046,0.3127,0.0929,0.0751,-0.0186
76,202,32,WP3HI34,WP3HI34:F5,1962-04-07,50,Hombre,Isquemico,Izquierda,2012-01-03,2012-01-09,2012-01-10,91,85,91,7,6,180,80,43,49,1,1,3,5,NA,F5,2012-04-03,45,85,NA,NA,NA,NA,NA,0,3,3,1,0,0,4,4,3,NA,NA,35,1,Afecto,0.263333333333333,1.45666666666667,-1.87678333333333,-0.0151333333333333,-0.254883333333333,0.0683333333333333,0.0540666666666667,0.0373833333333333,0.07935,0.05345,0.316283333333333,0.0189166666666667,0.05735,-0.0113333333333333
78,200,32,WP3HI34,WP3HI34:F4,1962-04-07,50,Hombre,Isquemico,Izquierda,2012-01-03,2012-01-09,2012-01-10,44,38,44,7,6,180,80,43,49,1,1,3,5,NA,F4,2012-02-16,NA,70,NA,NA,NA,NA,NA,0,2,3,1,0,0,4,3,3,NA,NA,23,1,Afecto,0.39,1.19,-2.0928,-1.194,-0.0259,0.0672,-0.0074,0.1188,0.1766,0.0395,0.1694,-0.2741,0.1202,-0.0851
80,194,29,WP3HI31,WP3HI31:F7,1936-05-24,76,Hombre,Isquemico,Izquierda,2011-12-12,2011-12-14,2011-12-21,162,160,162,9,2,168,75.5,36,47.5,2,1,NA,NA,NA,F7,2012-05-22,NA,75,NA,NA,NA,NA,NA,0,3,3,3,0,0,3,4,4,NA,NA,15,1,Afecto,0.52125,0.91625,-0.098225,-0.9066,-0.3914125,0.0974,-0.1002625,0.0234875,0.0746,-0.1047375,-0.0607375,-0.293,0.077675,-0.01255
82,192,29,WP3HI31,WP3HI31:F6,1936-05-24,76,Hombre,Isquemico,Izquierda,2011-12-12,2011-12-14,2011-12-21,121,119,121,9,2,168,75.5,36,47.5,2,1,NA,NA,NA,F6,2012-04-11,NA,75,NA,NA,NA,NA,NA,0,3,3,2,0,0,4,3,3,NA,NA,21,1,Afecto,0.41,1.01625,-1.8817875,-0.3007875,-0.392075,-0.09085,-0.0958625,0.137175,0.0168875,-0.0602875,0.2185125,-0.3117375,0.0396375,0.009575
84,189,29,WP3HI31,WP3HI31:F4,1936-05-24,76,Hombre,Isquemico,Izquierda,2011-12-12,2011-12-14,2011-12-21,79,77,79,9,2,168,75.5,36,47.5,1,1,NA,NA,NA,F4,2012-02-29,NA,75,NA,NA,NA,NA,NA,0,2,3,2,0,0,4,3,3,NA,NA,35,1,Afecto,0.2001392,1.43,-3.22624,0.36042,0.59018,-0.3885,0.2162,0.10572,-0.00434,0.02608,0.33578,-0.3441,-0.07386,0.0219
86,183,28,WP3HI30,WP3HI30:F7,1977-08-12,35,Hombre,Isquemico,Izquierda,2011-12-08,2011-12-12,2011-12-19,152,148,152,11,4,172,72.4000015258789,40.5,50,2,4,NA,NA,6,F7,2012-05-08,NA,100,NA,NA,NA,NA,NA,0,4,5,0,0,0,5,5,5,NA,NA,8,1,Afecto,0.986666666666667,0.785,1.38265,-0.57595,-0.546766666666667,-0.514616666666667,-0.270733333333333,-0.0982166666666667,0.00873333333333333,-0.115033333333333,-0.532366666666667,-0.06245,-0.03575,0.176616666666667
88,181,28,WP3HI30,WP3HI30:F6,1977-08-12,35,Hombre,Isquemico,Izquierda,2011-12-08,2011-12-12,2011-12-19,117,113,117,11,4,172,72.4000015258789,40.5,50,2,4,NA,NA,6,F6,2012-04-03,NA,100,NA,NA,NA,NA,NA,0,4,5,0,0,0,5,5,5,NA,NA,8,1,Afecto,0.938333333333333,0.791666666666667,1.43753333333333,-0.55735,-0.554716666666667,-0.685683333333333,-0.153133333333333,-0.091,0.0218333333333333,-0.18175,-0.493683333333333,-0.137933333333333,-0.09385,0.157366666666667
90,178,28,WP3HI30,WP3HI30:F4,1977-08-12,34,Hombre,Isquemico,Izquierda,2011-12-08,2011-12-12,2011-12-19,49,45,49,11,4,172,72.4000015258789,40.5,50,1,4,NA,NA,6,F4,2012-01-26,NA,100,NA,NA,NA,NA,NA,0,4,4,0,0,0,4,5,4,NA,NA,9,1,Afecto,0.9873928,0.768,2.1195,-0.78898,0.06752,-0.22396,-0.06996,-0.1335,0.09022,-0.0039,-0.58466,-0.21836,-0.000439999999999999,-0.00666
92,176,28,WP3HI30,WP3HI30:F3,1977-08-12,34,Hombre,Isquemico,Izquierda,2011-12-08,2011-12-12,2011-12-19,20,16,20,11,4,172,72.4000015258789,40.5,50,1,4,NA,NA,6,F3,2011-12-28,56,100,NA,NA,NA,NA,NA,0,4,4,0,0,0,5,5,4,NA,NA,10,1,Afecto,0.833333333333333,0.845,0.798883333333333,0.23765,-0.512866666666667,-0.609483333333333,-0.115466666666667,-0.0606666666666667,-0.0240166666666667,-0.0833333333333333,-0.34205,-0.0506333333333333,-0.0980166666666667,0.163916666666667
94,172,22,WP3HI24,WP3HI24:F8,1942-03-18,70,Hombre,Isquemico,Izquierda,2011-10-13,2011-10-17,2011-10-20,182,178,182,7,4,167,86.4000015258789,42,47,2,0,NA,NA,NA,F8,2012-04-12,51,95,NA,NA,NA,NA,NA,0,4,4,0,0,0,4,4,4,NA,NA,13,1,Afecto,0.73,0.85,0.304633333333333,-0.74375,-0.242783333333333,-0.0307166666666667,-0.143316666666667,0.0177166666666667,0.0395666666666667,-0.0984666666666667,-0.180616666666667,-0.240616666666667,0.19055,0.0412666666666667
96,170,22,WP3HI24,WP3HI24:F7,1942-03-18,70,Hombre,Isquemico,Izquierda,2011-10-13,2011-10-17,2011-10-20,152,148,152,7,4,167,86.4000015258789,42,47,2,0,NA,NA,NA,F7,2012-03-13,NA,85,NA,NA,NA,NA,NA,6.19999980926514,3,4,1,0,0,4,4,4,NA,NA,16,1,Afecto,0.715,0.861666666666667,0.348633333333333,-0.630916666666667,-0.21575,0.192116666666667,-0.163483333333333,0.0374666666666667,-0.00278333333333333,-0.0454833333333333,-0.130616666666667,-0.222366666666667,0.146666666666667,0.0287833333333333
98,168,22,WP3HI24,WP3HI24:F6,1942-03-18,70,Hombre,Isquemico,Izquierda,2011-10-13,2011-10-17,2011-10-20,123,119,123,7,4,167,86.4000015258789,42,47,2,0,NA,NA,NA,F6,2012-02-13,NA,80,NA,NA,NA,NA,NA,0,2,3,0,0,0,4,4,4,NA,NA,18,1,Afecto,0.355714285714286,1.14571428571429,-2.32467142857143,0.399357142857143,-0.185371428571429,0.457257142857143,0.0401571428571429,0.127114285714286,-0.0403571428571429,0.0190428571428571,0.317014285714286,-0.0227428571428571,0.0159571428571429,0.0492714285714286
100,161,16,WP3HI18,WP3HI18:F8,1940-09-07,72,Mujer,Isquemico,Izquierda,2011-09-11,2011-09-15,2011-09-20,183,179,183,9,4,164,73.9000015258789,40,49.5,2,2,3,5,NA,F8,2012-03-12,51,85,NA,NA,NA,NA,NA,0,3,3,1,0,0,4,4,3,NA,NA,10,1,Afecto,0.63,0.772,-0.92402,0.20364,-0.3475,0.28792,-0.13528,0.11254,-0.0974,0.01442,0.0618,-0.07876,0.01268,0.10978
102,159,16,WP3HI18,WP3HI18:F7,1940-09-07,71,Mujer,Isquemico,Izquierda,2011-09-11,2011-09-15,2011-09-20,155,151,155,9,4,164,73.9000015258789,40,49.5,2,2,3,5,NA,F7,2012-02-13,NA,85,NA,NA,NA,NA,NA,0,3,3,1,0,0,4,5,4,NA,NA,12,1,Afecto,0.627142857142857,0.84,-0.688,0.427828571428571,-0.542785714285714,-0.136042857142857,-0.199814285714286,0.103028571428571,-0.0943428571428571,-0.0262142857142857,0.0472,-0.0507714285714286,-0.0519714285714286,0.147542857142857
104,157,16,WP3HI18,WP3HI18:F6,1940-09-07,71,Mujer,Isquemico,Izquierda,2011-09-11,2011-09-15,2011-09-20,124,120,124,9,4,164,73.9000015258789,40,49.5,2,2,3,5,NA,F6,2012-01-13,NA,95,NA,NA,NA,NA,NA,0,4,4,0,0,0,4,5,4,NA,NA,14,1,Afecto,0.647142857142857,0.83,-0.825742857142857,0.224742857142857,-0.640528571428571,-0.0612428571428571,-0.100385714285714,0.0938,-0.0770428571428571,-0.0306857142857143,0.0503857142857143,-0.131914285714286,-0.0275571428571429,0.131142857142857
106,155,16,WP3HI18,WP3HI18:F5,1940-09-07,71,Mujer,Isquemico,Izquierda,2011-09-11,2011-09-15,2011-09-20,93,89,93,9,4,164,73.9000015258789,40,49.5,1,2,3,5,NA,F5,2011-12-13,49,85,NA,NA,NA,NA,NA,0,3,3,1,0,1,5,4,4,NA,NA,12,1,Afecto,0.662891,0.755555555555556,0.0795777777777778,0.0439777777777778,-0.016,0.113155555555556,-0.171477777777778,0.0225777777777778,-0.0510444444444444,-0.00353333333333333,-0.0350111111111111,-0.0536,0.00146666666666667,0.0382555555555556
108,153,16,WP3HI18,WP3HI18:F4,1940-09-07,71,Mujer,Isquemico,Izquierda,2011-09-11,2011-09-15,2011-09-20,46,42,46,9,4,164,73.9000015258789,40,49.5,1,2,3,5,NA,F4,2011-10-27,NA,75,NA,NA,NA,NA,NA,0,2,3,0,0,0,4,4,3,NA,NA,26,1,Afecto,0.38,1.13,0.2502,-0.9485,-0.0248,0.7735,-0.0086,-0.0358,0.1927,-0.0209,0.0817,0.3089,0.1107,-0.0442
110,148,15,WP3HI17,WP3HI17:F8,1971-11-03,40,Mujer,Isquemico,Izquierda,2011-09-13,2011-09-14,2011-09-23,182,181,182,10,1,164,63.4000015258789,38.5,47.5,2,2,4,5,3,F8,2012-03-13,53,85,NA,NA,NA,NA,NA,0,4,4,0,0,0,5,4,3,NA,NA,10,1,Afecto,0.665,0.813333333333333,0.179633333333333,-0.3809,-0.605633333333333,-0.1744,-0.0448666666666667,0.0190166666666667,0.03705,-0.0427666666666667,-0.109783333333333,-0.142466666666667,0.0419666666666667,-0.0648666666666667
112,146,15,WP3HI17,WP3HI17:F7,1971-11-03,40,Mujer,Isquemico,Izquierda,2011-09-13,2011-09-14,2011-09-23,153,152,153,10,1,164,63.4000015258789,38.5,47.5,2,2,4,5,3,F7,2012-02-13,NA,80,NA,NA,NA,NA,NA,0,3,4,0,0,0,4,4,3,NA,NA,10,1,Afecto,0.695714285714286,0.811428571428571,-0.199642857142857,-0.763757142857143,-0.679685714285714,0.0349285714285714,-0.109828571428571,0.0129428571428571,-0.00281428571428571,-0.00464285714285714,-0.102271428571429,-0.257571428571429,0.142428571428571,-0.0151714285714286
114,144,15,WP3HI17,WP3HI17:F6,1971-11-03,40,Mujer,Isquemico,Izquierda,2011-09-13,2011-09-14,2011-09-23,121,120,121,10,1,164,63.4000015258789,38.5,47.5,2,2,4,5,3,F6,2012-01-12,NA,80,NA,NA,NA,NA,NA,0,3,4,1,0,0,5,4,3,NA,NA,11,1,Afecto,0.73,0.73,0.0176,-0.66215,-0.8864,-0.10445,-0.0635,0.0712,-0.057,-0.036,-0.1482,-0.1916,0.07815,-0.02785
116,142,15,WP3HI17,WP3HI17:F5,1971-11-03,40,Mujer,Isquemico,Izquierda,2011-09-13,2011-09-14,2011-09-23,91,90,91,10,1,164,63.4000015258789,38.5,47.5,1,2,4,5,3,F5,2011-12-13,50,75,NA,NA,NA,NA,NA,0,3,4,1,0,0,5,4,3,NA,NA,11,1,Afecto,0.711433714285714,0.855714285714286,0.0778857142857143,-0.547357142857143,-0.187742857142857,0.0768857142857143,0.219757142857143,-0.0243714285714286,-0.00322857142857143,-0.0343142857142857,-0.106557142857143,-0.276457142857143,0.139514285714286,-0.0993857142857143
118,140,15,WP3HI17,WP3HI17:F4,1971-11-03,40,Mujer,Isquemico,Izquierda,2011-09-13,2011-09-14,2011-09-23,44,43,44,10,1,164,63.4000015258789,38.5,47.5,1,2,4,5,3,F4,2011-10-27,NA,75,NA,NA,NA,NA,NA,0,2,4,0,0,0,5,3,3,NA,NA,22,1,Afecto,0.501428571428571,1.11428571428571,-1.05188571428571,-1.0806,-0.629314285714286,0.229271428571429,-0.0678,0.0460857142857143,0.120657142857143,0.0481714285714286,0.0772142857142857,-0.1094,0.230242857142857,-0.0103857142857143
120,138,15,WP3HI17,WP3HI17:F3,1971-11-03,40,Mujer,Isquemico,Izquierda,2011-09-13,2011-09-14,2011-09-23,15,14,15,10,1,164,63.4000015258789,38.5,47.5,1,2,4,5,3,F3,2011-09-28,16,70,NA,NA,NA,NA,NA,0,1,2,0,0,0,5,3,0,NA,NA,NA,1,Afecto,0.711433714285714,0.855714285714286,0.223657142857143,-0.572528571428571,-0.285428571428571,0.123928571428571,0.211571428571429,-0.0239,-0.00447142857142857,-0.0349571428571429,-0.118928571428571,-0.283428571428571,0.143971428571429,-0.101
122,136,15,WP3HI17,WP3HI17:F2,1971-11-03,40,Mujer,Isquemico,Izquierda,2011-09-13,2011-09-14,2011-09-23,15,14,15,10,1,164,63.4000015258789,38.5,47.5,NA,2,4,5,3,NA,2011-09-28,16,70,2,4,NA,NA,NA,0,1,2,0,0,0,5,3,3,4,51,NA,1,Afecto,0.711433714285714,0.855714285714286,0.223657142857143,-0.572528571428571,-0.285428571428571,0.123928571428571,0.211571428571429,-0.0239,-0.00447142857142857,-0.0349571428571429,-0.118928571428571,-0.283428571428571,0.143971428571429,-0.101
124,133,7,WP3HI09,WP3HI09:F8,1946-05-15,66,Hombre,Isquemico,Izquierda,2011-06-18,2011-06-20,2011-06-28,180,178,180,10,2,161,73.6999969482422,39.5,45.5,2,2,NA,NA,NA,F8,2011-12-15,38,70,NA,NA,NA,NA,NA,6,2,2,3,1,2,4,4,NA,NA,NA,19,1,Afecto,0.355,0.895,-2.6304,-1.3182,0.5817,-0.26465,-0.3007,0.2269,0.0465,-0.00695,0.30025,-0.3432,0.01925,-0.11325
126,130,7,WP3HI09,WP3HI09:F6,1946-05-15,65,Hombre,Isquemico,Izquierda,2011-06-18,2011-06-20,2011-06-28,124,122,124,10,2,161,73.6999969482422,39.5,45.5,2,2,NA,NA,NA,F6,2011-10-20,NA,65,NA,NA,NA,NA,NA,0,2,3,2,0,3,4,4,0,NA,NA,25,1,Afecto,0.23,1.03,-3.6129,-1.6219,1.5426,-1.2843,-0.0465,0.1535,0.1661,0.0471,0.3151,-0.435,-0.0634,-0.0901
128,122,1,WP3HI02,WP3HI02:F8,1933-08-06,78,Hombre,Isquemico,Izquierda,2011-05-03,2011-05-05,2011-05-09,184,182,184,6,2,155,64,41,44,2,3,4,5,NA,F8,2011-11-03,48,90,NA,NA,NA,NA,NA,0,3,4,0,0,0,5,5,5,NA,NA,13,1,Afecto,0.725087666666667,0.745,1.30958333333333,-0.38145,0.442033333333333,-0.0594666666666667,-0.270016666666667,-0.0147,0.0234,0.0132666666666667,-0.195533333333333,-0.205683333333333,0.07255,-0.160266666666667
130,120,1,WP3HI02,WP3HI02:F6,1933-08-06,78,Hombre,Isquemico,Izquierda,2011-05-03,2011-05-05,2011-05-09,121,119,121,6,2,155,64,41,44,2,3,4,5,NA,F6,2011-09-01,NA,80,NA,NA,NA,NA,NA,0,3,4,0,0,0,5,5,5,NA,NA,15,1,Afecto,0.627325142857143,0.795714285714286,0.934314285714286,-0.184157142857143,0.3318,-0.148771428571429,-0.2086,-0.00787142857142857,0.0130714285714286,0.0290571428571429,-0.0625428571428571,-0.271457142857143,0.103685714285714,-0.147314285714286
132,118,1,WP3HI02,WP3HI02:F5,1933-08-06,78,Hombre,Isquemico,Izquierda,2011-05-03,2011-05-05,2011-05-09,86,84,86,6,2,155,64,41,44,1,3,4,5,NA,F5,2011-07-28,47,85,NA,NA,NA,NA,NA,0,3,4,0,0,0,5,5,5,NA,NA,11.3000001907349,1,Afecto,0.643472625,0.81875,1.321,-0.276275,0.3992375,-0.0497625,-0.1509625,-0.018175,0.0350875,0.013025,-0.1628375,-0.113925,0.028425,-0.1447
134,109,34,WP3HD36,WP3HD36:F6,1973-07-03,39,Hombre,Isquemico,Derecha,2012-01-22,2012-01-25,2012-01-30,123,120,123,8,3,177,110,42.5,54.5,2,4,4,6,4,F6,2012-05-24,NA,100,NA,NA,NA,NA,NA,0,4,5,0,0,0,5,4,5,NA,NA,6,1,Afecto,0.976,0.808,0.55738,-0.53876,-0.62032,-0.70384,-0.71738,-0.05488,-0.02086,-0.05792,-0.47054,0.1072,0.06484,0.20654
136,107,34,WP3HD36,WP3HD36:F5,1973-07-03,39,Hombre,Isquemico,Derecha,2012-01-22,2012-01-25,2012-01-30,93,90,93,8,3,177,110,42.5,54.5,1,4,4,6,4,F5,2012-04-24,53,95,NA,NA,NA,NA,NA,0,4,4,1,0,0,5,4,4,NA,NA,6,1,Afecto,1.00666666666667,0.871666666666667,0.920283333333333,-1.44763333333333,-0.323033333333333,-0.26935,-0.736666666666667,-0.154416666666667,0.09725,0.00768333333333333,-0.687383333333333,0.0695,0.244616666666667,0.15775
138,105,34,WP3HD36,WP3HD36:F4,1973-07-03,39,Hombre,Isquemico,Derecha,2012-01-22,2012-01-25,2012-01-30,50,47,50,8,3,177,110,42.5,54.5,1,4,4,6,4,F4,2012-03-12,NA,100,NA,NA,NA,NA,NA,0,3,4,1,0,0,4,4,4,NA,NA,7,1,Afecto,0.843333333333333,0.893333333333333,0.679816666666667,-0.204916666666667,-0.254216666666667,-0.585333333333333,-0.536233333333333,-0.131983333333333,-0.0306833333333333,-0.00521666666666667,-0.436533333333333,0.172833333333333,-2.31296463463574e-18,0.15535
140,103,34,WP3HD36,WP3HD36:F3,1973-07-03,39,Hombre,Isquemico,Derecha,2012-01-22,2012-01-25,2012-01-30,15,12,15,8,3,177,110,42.5,54.5,1,4,4,6,4,F3,2012-02-06,48,80,NA,NA,NA,NA,NA,3.5,2,4,1,0,1,5,4,4,NA,NA,12,1,Afecto,0.798,0.916,0.14534,-0.96204,-0.25934,0.00664000000000001,-0.37628,-0.06724,0.09394,0.04708,-0.35674,0.06438,0.20828,0.16412
142,97,33,WP3HD35,WP3HD35:F6,1965-06-16,47,Hombre,Isquemico,Derecha,2012-01-07,2012-01-09,2012-01-13,122,120,122,6,2,172.5,71,42.5,49.5,2,4,5,6,4,F6,2012-05-08,NA,100,NA,NA,NA,NA,NA,0,4,5,0,0,0,5,5,5,NA,NA,5,1,Afecto,0.948333333333333,0.828333333333333,1.22895,-0.6661,-0.29975,0.136666666666667,-0.0526166666666667,-0.00125,0.0122166666666667,-0.063,-0.697466666666667,0.0163,0.0262833333333333,0.154033333333333
144,95,33,WP3HD35,WP3HD35:F5,1965-06-16,47,Hombre,Isquemico,Derecha,2012-01-07,2012-01-09,2012-01-13,96,94,96,6,2,172.5,71,42.5,49.5,1,4,5,6,4,F5,2012-04-12,56,100,NA,NA,NA,NA,NA,0,4,5,0,0,0,5,5,5,NA,NA,7,1,Afecto,NA,0.865,1.06858333333333,-0.723,-0.31255,0.298033333333333,-0.03925,0.00536666666666667,0.03465,-0.04645,-0.635966666666667,0.1184,0.0340833333333333,0.151283333333333
146,93,33,WP3HD35,WP3HD35:F4,1965-06-16,47,Hombre,Isquemico,Derecha,2012-01-07,2012-01-09,2012-01-13,47,45,47,6,2,172.5,71,42.5,49.5,1,4,5,6,4,F4,2012-02-23,NA,100,NA,NA,NA,NA,NA,0,4,5,0,0,0,5,5,5,NA,NA,6,1,Afecto,0.975,0.821666666666667,1.37943333333333,-0.62575,-0.206366666666667,0.132766666666667,0.00183333333333333,-0.0186833333333333,0.0251666666666667,-0.0688,-0.754733333333333,0.0212166666666667,0.0598,0.114483333333333
148,91,33,WP3HD35,WP3HD35:F3,1965-06-16,47,Hombre,Isquemico,Derecha,2012-01-07,2012-01-09,2012-01-13,16,14,16,6,2,172.5,71,42.5,49.5,1,4,5,6,4,F3,2012-01-23,52,90,NA,NA,NA,NA,NA,0,2,4,0,1,0,4,4,5,NA,NA,5,1,Afecto,0.8802905,0.823333333333333,1.27056666666667,-0.44135,0.0704666666666667,0.3797,0.1205,0.00661666666666667,0.00106666666666667,-0.0140333333333333,-0.486316666666667,0.0627,-0.00326666666666667,0.0193666666666667
150,87,26,WP3HD28,WP3HD28:F8,1959-06-09,53,Hombre,Isquemico,Derecha,2011-11-26,2011-11-29,2011-12-09,185,182,185,13,3,160,50,39.5,48.5,2,3,3,5,4,F8,2012-05-29,50,80,NA,NA,NA,NA,NA,6,3,3,3,0,1,4,4,4,NA,NA,9,1,Afecto,0.586666666666667,0.901666666666667,0.191166666666667,-0.640266666666667,-0.213683333333333,0.437233333333333,0.0731166666666667,0.0562333333333333,0.15405,-0.0286666666666667,0.222633333333333,-0.08255,0.1416,0.0114166666666667
152,85,26,WP3HD28,WP3HD28:F7,1959-06-09,53,Hombre,Isquemico,Derecha,2011-11-26,2011-11-29,2011-12-09,150,147,150,13,3,160,50,39.5,48.5,2,3,3,5,4,F7,2012-04-24,NA,80,NA,NA,NA,NA,NA,6,3,3,2,0,0,5,5,3,NA,NA,8,1,Afecto,0.562,0.898,-0.20126,-0.91972,-0.6042,0.68342,0.11816,0.07678,0.15174,-0.04768,0.34592,0.02846,0.18792,0.05982
154,83,26,WP3HD28,WP3HD28:F6,1959-06-09,53,Hombre,Isquemico,Derecha,2011-11-26,2011-11-29,2011-12-09,128,125,128,13,3,160,50,39.5,48.5,2,3,3,5,4,F6,2012-04-02,NA,80,NA,NA,NA,NA,NA,6,3,3,2,0,0,5,5,3,NA,NA,7,1,Afecto,0.523333333333333,0.898333333333333,-0.64885,-0.98495,-0.474083333333333,0.576316666666667,0.0643833333333333,0.0818166666666667,0.144366666666667,-0.02715,0.299,-0.0670333333333333,0.1938,0.0218666666666667
156,81,26,WP3HD28,WP3HD28:F5,1959-06-09,53,Hombre,Isquemico,Derecha,2011-11-26,2011-11-29,2011-12-09,95,92,95,13,3,160,50,39.5,48.5,1,3,3,5,4,F5,2012-02-29,54,85,NA,NA,NA,NA,NA,3.29999995231628,3,3,1,0,0,5,4,3,NA,NA,8,1,Afecto,0.535,0.956666666666667,-0.0489833333333334,-0.0699666666666666,-0.0123,0.26125,0.166616666666667,0.0394166666666667,0.0567166666666667,-0.0107333333333333,0.283233333333333,0.0857666666666667,0.0748666666666667,0.0054
158,78,26,WP3HD28,WP3HD28:F3,1959-06-09,53,Hombre,Isquemico,Derecha,2011-11-26,2011-11-29,2011-12-09,19,16,19,13,3,160,50,39.5,48.5,1,3,3,5,4,F3,2011-12-15,37,65,NA,NA,NA,NA,NA,0,2,3,1,0,0,3,3,3,NA,NA,NA,1,Afecto,0.44,0.95,-1.2491,0.5247,-0.46495,-0.24725,-0.0296,0.0859,-0.044,-0.01235,0.26295,0.06785,0.1046,0.0853
160,74,17,WP3HD19,WP3HD19:F8,1929-03-18,83,Hombre,Isquemico,Derecha,2011-09-04,2011-09-08,2011-09-19,183,179,183,15,4,151,83.0999984741211,39.5,44,2,2,3,5,4,F8,2012-03-05,49,95,NA,NA,NA,NA,NA,0,3,4,0,0,0,5,5,5,NA,NA,15,1,Afecto,0.538571428571429,1.04,-0.951857142857143,-0.312028571428571,-0.510671428571429,0.0329142857142857,-0.237157142857143,0.156485714285714,0.0226714285714286,-0.0284571428571429,0.109557142857143,0.0851142857142857,0.138771428571429,0.105657142857143
162,72,17,WP3HD19,WP3HD19:F7,1929-03-18,83,Hombre,Isquemico,Derecha,2011-09-04,2011-09-08,2011-09-19,155,151,155,15,4,151,83.0999984741211,39.5,44,2,2,3,5,4,F7,2012-02-06,NA,95,NA,NA,NA,NA,NA,0,3,4,0,0,0,5,4,5,NA,NA,18,1,Afecto,0.483169375,1.01,-0.2931375,0.00221250000000001,-0.0521375,0.092775,-0.1533875,0.092825,0.005825,-0.0023875,0.04865,0.0901125,0.120725,0.0379125
164,70,17,WP3HD19,WP3HD19:F6,1929-03-18,83,Hombre,Isquemico,Derecha,2011-09-04,2011-09-08,2011-09-19,130,126,130,15,4,151,83.0999984741211,39.5,44,2,2,3,5,4,F6,2012-01-12,NA,95,NA,NA,NA,NA,NA,0,3,3,0,0,0,5,4,4,NA,NA,14,1,Afecto,NA,1.09571428571429,-0.367057142857143,-0.476242857142857,-0.4786,0.295757142857143,-0.174114285714286,0.125214285714286,0.0679571428571429,-0.0256571428571429,-0.0208285714285714,0.0937285714285714,0.154628571428571,0.0870428571428571
166,68,17,WP3HD19,WP3HD19:F5,1929-03-18,83,Hombre,Isquemico,Derecha,2011-09-04,2011-09-08,2011-09-19,88,84,88,15,4,151,83.0999984741211,39.5,44,1,2,3,5,4,F5,2011-12-01,47,100,NA,NA,NA,NA,NA,0,3,3,0,0,0,5,4,4,NA,NA,16,1,Afecto,0.621309,0.957142857142857,0.684842857142857,-0.387185714285714,0.0168142857142857,0.316257142857143,-0.0258,0.0578428571428571,0.0299285714285714,0.00918571428571428,-0.1315,0.0118857142857143,0.122657142857143,0.0177285714285714
168,64,17,WP3HD19,WP3HD19:F3,1929-03-18,83,Hombre,Isquemico,Derecha,2011-09-04,2011-09-08,2011-09-19,23,19,23,15,4,151,83.0999984741211,39.5,44,1,2,3,5,4,F3,2011-09-27,41,80,NA,NA,NA,NA,NA,0,2,2,0,0,0,5,2,4,NA,NA,20,1,Afecto,0.462634,1.1375,0.15625,0.127275,-0.27005,0.202825,0.019775,0.0652,0.003575,0.003025,0.04695,0.13255,0.076725,0.057975
170,60,13,WP3HD15,WP3HD15:F8,1938-05-17,74,Hombre,Isquemico,Derecha,2011-09-06,2011-09-09,2011-09-13,182,179,182,7,3,153,64,36,46,2,2,3,5,NA,F8,2012-03-06,51,80,NA,NA,NA,NA,NA,0,3,3,0,0,0,5,4,5,NA,NA,11,1,Afecto,0.6,0.856666666666667,-0.368683333333333,0.51975,-0.68705,-0.203916666666667,-0.109766666666667,0.0691166666666667,-0.0836166666666667,0.0374,0.0498666666666667,0.348683333333333,0.0166833333333333,0.104933333333333
172,58,13,WP3HD15,WP3HD15:F7,1938-05-17,74,Hombre,Isquemico,Derecha,2011-09-06,2011-09-09,2011-09-13,156,153,156,7,3,153,64,36,46,2,2,3,5,NA,F7,2012-02-09,NA,80,NA,NA,NA,NA,NA,6,3,3,0,0,0,5,4,5,NA,NA,11,1,Afecto,0.515714285714286,0.888571428571429,-0.963471428571429,0.827485714285714,-0.3768,0.00587142857142858,-0.122242857142857,0.100614285714286,-0.0778428571428571,0.0372,0.138585714285714,0.246028571428571,0.0527857142857143,0.0919285714285714
174,56,13,WP3HD15,WP3HD15:F6,1938-05-17,74,Hombre,Isquemico,Derecha,2011-09-06,2011-09-09,2011-09-13,126,123,126,7,3,153,64,36,46,2,2,3,5,NA,F6,2012-01-10,NA,75,NA,NA,NA,NA,NA,5.5,3,3,0,0,0,4,4,5,NA,NA,12,1,Afecto,0.584531625,0.82375,0.56465,0.8072125,0.1990625,-0.127625,-0.0629,0.0315625,-0.06355,0.0771625,0.0122375,0.1859875,0.0067875,-0.0173375
176,54,13,WP3HD15,WP3HD15:F5,1938-05-17,74,Hombre,Isquemico,Derecha,2011-09-06,2011-09-09,2011-09-13,86,83,86,7,3,153,64,36,46,1,2,3,5,NA,F5,2011-12-01,46,80,NA,NA,NA,NA,NA,0,3,3,0,0,0,5,4,5,NA,NA,15,1,Afecto,0.652215,0.825714285714286,0.725771428571429,0.7754,0.193242857142857,-0.221914285714286,0.0887857142857143,0.0095,-0.0622714285714286,0.0649285714285714,-0.0376428571428571,0.324128571428571,0.000657142857142857,-0.0417714285714286
178,52,13,WP3HD15,WP3HD15:F4,1938-05-17,73,Hombre,Isquemico,Derecha,2011-09-06,2011-09-09,2011-09-13,44,41,44,7,3,153,64,36,46,1,2,3,5,NA,F4,2011-10-20,NA,70,NA,NA,NA,NA,NA,0,3,4,0,0,0,5,4,5,NA,NA,NA,1,Afecto,0.471666666666667,1.095,-0.527383333333333,0.223516666666667,-0.828683333333333,0.0699666666666667,0.00568333333333334,0.0402,-0.02115,0.0407666666666667,0.1043,0.230716666666667,0.112766666666667,0.0734166666666667
180,49,13,WP3HD15,WP3HD15:F2,1938-05-17,73,Hombre,Isquemico,Derecha,2011-09-06,2011-09-09,2011-09-13,16,13,16,7,3,153,64,36,46,NA,2,3,5,NA,NA,2011-09-22,35,65,4,2,NA,NA,NA,0,2,2,0,0,0,4,5,5,4,37,28,1,Afecto,0.471666666666667,1.095,-0.527383333333333,0.223516666666667,-0.828683333333333,0.0699666666666667,0.00568333333333334,0.0402,-0.02115,0.0407666666666667,0.1043,0.230716666666667,0.112766666666667,0.0734166666666667
182,46,10,WP3HD12,WP3HD12:F8,1958-03-26,54,Hombre,Hemorragico,Derecha,2011-06-30,2011-07-05,2011-07-05,181,176,181,5,5,171,82.5,41.5,50.5,2,NA,4,6,NA,F8,2011-12-28,59,100,NA,NA,NA,NA,NA,0,4,4,0,0,0,5,5,5,NA,NA,7,1,Afecto,0.938333333333333,0.831666666666667,1.15515,-0.266466666666667,0.125666666666667,-0.2857,0.0468833333333333,-0.09195,-0.02375,-0.104533333333333,-0.389583333333333,0.134783333333333,0.00876666666666667,-0.0179666666666667
184,44,10,WP3HD12,WP3HD12:F7,1958-03-26,54,Hombre,Hemorragico,Derecha,2011-06-30,2011-07-05,2011-07-05,154,149,154,5,5,171,82.5,41.5,50.5,2,NA,4,6,NA,F7,2011-12-01,NA,100,NA,NA,NA,NA,NA,0,4,4,0,0,0,5,5,4,NA,NA,10,1,Afecto,0.904109833333333,0.811666666666667,1.37931666666667,-0.205383333333333,0.5436,-0.0398166666666667,0.06315,-0.11695,-0.001,0.00738333333333333,-0.394866666666667,0.146383333333333,-0.0665833333333333,-0.0789
186,42,10,WP3HD12,WP3HD12:F6,1958-03-26,54,Hombre,Hemorragico,Derecha,2011-06-30,2011-07-05,2011-07-05,126,121,126,5,5,171,82.5,41.5,50.5,2,NA,4,6,NA,F6,2011-11-03,NA,100,NA,NA,NA,NA,NA,0,4,4,0,0,0,5,5,5,NA,NA,10,1,Afecto,0.8838618,0.814,1.09304,-0.34308,0.9119,0.0276,0.20662,-0.08966,0.03576,0.02066,-0.33242,0.13902,-0.03354,-0.13442
188,40,10,WP3HD12,WP3HD12:F5,1958-03-26,54,Hombre,Hemorragico,Derecha,2011-06-30,2011-07-05,2011-07-05,90,85,90,5,5,171,82.5,41.5,50.5,1,NA,4,6,NA,F5,2011-09-28,49,95,NA,NA,NA,NA,NA,0,4,4,0,0,0,5,4,4,NA,NA,10,1,Afecto,0.826802333333333,0.805,1.2702,-0.2141,0.5908,0.0947166666666667,0.0903833333333333,-0.08845,0.0168166666666667,0.00946666666666667,-0.27155,0.265983333333333,-0.0441833333333333,-0.0961333333333333
190,36,9,WP3HD11,WP3HD11:F8,1939-04-04,73,Hombre,Isquemico,Derecha,2011-06-23,2011-06-24,2011-06-28,182,181,182,5,1,159,78.3000030517578,38,47.5,2,1,3,4,NA,F8,2011-12-22,48,85,NA,NA,NA,NA,NA,0,3,3,0,0,0,4,4,4,NA,NA,25,1,Afecto,0.229137125,0.94625,-3.6396625,-1.0693125,1.006725,-0.8715875,0.0198,0.1867125,0.0813875,-0.0012375,0.4254875,-0.0825875,0.0698625,-0.0612625
192,34,9,WP3HD11,WP3HD11:F7,1939-04-04,73,Hombre,Isquemico,Derecha,2011-06-23,2011-06-24,2011-06-28,153,152,153,5,1,159,78.3000030517578,38,47.5,2,1,3,4,NA,F7,2011-11-23,NA,90,NA,NA,NA,NA,NA,0,3,4,0,0,0,4,4,4,NA,NA,NA,1,Afecto,0.234508833333333,1.03666666666667,-3.89578333333333,-0.657066666666667,0.998616666666667,-0.7959,-0.0091,0.16575,0.077,0.0239833333333333,0.375333333333333,-0.130416666666667,0.0367166666666667,-0.0334833333333333
194,31,9,WP3HD11,WP3HD11:F5,1939-04-04,73,Hombre,Isquemico,Derecha,2011-06-23,2011-06-24,2011-06-28,91,90,91,5,1,159,78.3000030517578,38,47.5,1,1,3,4,NA,F5,2011-09-22,39,85,NA,NA,NA,NA,NA,0,2,3,0,0,0,4,4,4,NA,NA,33,1,Afecto,0.2241865,1.245,-3.82055,-0.5981,1.07365,-1.41485,0.248,0.09145,0.06205,-0.01765,0.40465,-0.18555,0.01445,-0.03665
196,25,6,WP3HD08,WP3HD08:F8,1933-03-19,79,Hombre,Isquemico,Derecha,2011-06-16,2011-06-17,2011-06-22,182,181,182,6,1,154,62.2000007629395,36,41,2,3,NA,NA,NA,F8,2011-12-15,46,90,NA,NA,NA,NA,NA,0,3,3,0,0,0,5,4,4,NA,NA,31,1,Afecto,0.258333333333333,1.01333333333333,-1.86633333333333,0.269433333333333,-0.149,0.123816666666667,0.00563333333333333,0.08825,-0.0209833333333333,0.0419666666666667,0.458033333333333,0.0143833333333333,-0.0831166666666667,-0.0104833333333333
198,23,6,WP3HD08,WP3HD08:F7,1933-03-19,79,Hombre,Isquemico,Derecha,2011-06-16,2011-06-17,2011-06-22,151,150,151,6,1,154,62.2000007629395,36,41,2,3,NA,NA,NA,F7,2011-11-14,NA,85,NA,NA,NA,NA,NA,0,2,3,0,0,0,5,5,4,NA,NA,28,1,Afecto,0.348855,0.886666666666667,-1.15166666666667,-0.1819,-0.129966666666667,0.2247,0.0316333333333333,0.0731333333333333,-0.000533333333333335,0.0885,0.404166666666667,0.1602,0.0666666666666667,0.00456666666666667
200,21,6,WP3HD08,WP3HD08:F6,1933-03-19,79,Hombre,Isquemico,Derecha,2011-06-16,2011-06-17,2011-06-22,120,119,120,6,1,154,62.2000007629395,36,41,2,3,NA,NA,NA,F6,2011-10-14,NA,75,NA,NA,NA,NA,NA,2.29999995231628,2,3,0,0,0,5,4,4,NA,NA,20,1,Afecto,0.413333333333333,0.995,-0.8121,0.97225,-0.281166666666667,0.1594,0.0106166666666667,0.0338166666666667,-0.0913,0.0572666666666667,0.278233333333333,0.236783333333333,0.0423833333333333,0.0883833333333333
202,17,6,WP3HD08,WP3HD08:F4,1933-03-19,78,Hombre,Isquemico,Derecha,2011-06-16,2011-06-17,2011-06-22,42,41,42,6,1,154,62.2000007629395,36,41,1,3,NA,NA,NA,F4,2011-07-28,NA,75,NA,NA,NA,NA,NA,0,3,3,0,0,0,5,5,5,NA,NA,21,1,Afecto,0.436047,0.97,-0.777925,0.60615,-0.16615,0.236775,0.073975,0.016075,-0.0573,0.076025,0.336025,0.1341,0.0484,0.026775
204,12,4,WP3HD06,WP3HD06:F5,1955-06-07,56,Hombre,Isquemico,Derecha,2011-05-11,2011-05-13,2011-05-18,92,90,92,7,2,170,83.4000015258789,41,49,1,3,4,5,4,F5,2011-08-11,42,95,NA,NA,NA,NA,NA,5,3,4,0,0,0,4,3,5,NA,NA,22,1,Afecto,0.51716775,1.1025,0.734125,-0.06245,0.4602,0.200375,0.0637,-0.03525,0.035825,0.0501,-0.05495,0.102025,0.0627,0.0107
206,10,4,WP3HD06,WP3HD06:F3,1955-06-07,56,Hombre,Isquemico,Derecha,2011-05-11,2011-05-13,2011-05-18,14,12,14,7,2,170,83.4000015258789,41,49,1,3,4,5,4,F3,2011-05-25,48,85,NA,NA,NA,NA,NA,0,2,3,1,0,1,3,3,3,NA,NA,25,1,Afecto,0.468632,1.06,0.4939,-0.1104,0.401233333333333,0.275266666666667,0.0479333333333333,-0.0117666666666667,-0.0294333333333333,0.0688,0.0480333333333333,0.0606,0.0303,-0.0162
208,6,3,WP3HD05,WP3HD05:F6,1929-02-19,83,Hombre,Isquemico,Derecha,2011-05-11,2011-05-17,2011-05-19,134,128,134,8,6,162,75.6999969482422,41,47.5,2,1,NA,NA,NA,F6,2011-09-22,NA,90,NA,NA,NA,NA,NA,0,3,3,0,NA,0,5,3,5,NA,NA,16,1,Afecto,0.8,0.94,-0.365666666666667,0.177088888888889,-0.200722222222222,0.0971,0.0119666666666667,0.0221666666666667,-0.0590666666666667,0.0677111111111111,0.269188888888889,0.178111111111111,0.1177,0.0462222222222222
210,4,3,WP3HD05,WP3HD05:F4,1929-02-19,82,Hombre,Isquemico,Derecha,2011-05-11,2011-05-17,2011-05-19,57,51,57,8,6,162,75.6999969482422,41,47.5,1,1,NA,NA,NA,F4,2011-07-07,NA,55,NA,NA,NA,NA,NA,2.5,2,2,0,0,1,5,3,4,NA,NA,18,1,Afecto,0.535873,0.82,-0.832475,-0.7388125,-0.2481625,0.3911375,0.1081375,0.0829125,-0.06435,0.0240125,0.2788375,0.037125,0.140775,-0.004525
